Using the discAUC package
…
The one major assumption of this package is that discounting data are
Tidy. The principles of tidy data are outlined by Wickham (2014). To
overly simplify, the discounting data should be organized in a
long-format in which there is only one indifference point per row of
data. All of the pertinent information for that indifference point
(e.g., subject/participant identifier, condition, delay, etc.) should be
organized in different columns of the data. Two example data sets are
included with the package that demonstrate the expected data format and
can be used to test the package.

#Example Tidy Delay Discounting Data
examp_DD
#> # A tibble: 360 × 4
#>    subject delay_months outcome       prop_indiff
#>      <dbl>        <dbl> <chr>               <dbl>
#>  1     103       0.0333 alcohol             0.878
#>  2     103       0.25   alcohol             0.749
#>  3     103       0.5    alcohol             0.747
#>  4     103       1      alcohol             0.741
#>  5     103       6      alcohol             0.249
#>  6     103      60      alcohol             0.241
#>  7     103       0.0333 entertainment       0.987
#>  8     103       0.25   entertainment       0.933
#>  9     103       0.5    entertainment       0.929
#> 10     103       1      entertainment       0.935
#> # ℹ 350 more rows

The indifference points are the last column in this example data set
(“prop_indiff”). For each indifference point the subject number, delay
to receiving the indifference point, and the type of outcome being
discounted are all labeled in different columns. The tidy format allows
for easier data manipulation and organization. For example, if you only
wanted to calculate AUC for a specific subject or for a specific set of
conditions then you filter the data based on the variables of
interest.

#Filter example DD data by subject (relies on dplyr library)
examp_DD %>%
  filter(subject == 103)
#> # A tibble: 24 × 4
#>    subject delay_months outcome       prop_indiff
#>      <dbl>        <dbl> <chr>               <dbl>
#>  1     103       0.0333 alcohol             0.878
#>  2     103       0.25   alcohol             0.749
#>  3     103       0.5    alcohol             0.747
#>  4     103       1      alcohol             0.741
#>  5     103       6      alcohol             0.249
#>  6     103      60      alcohol             0.241
#>  7     103       0.0333 entertainment       0.987
#>  8     103       0.25   entertainment       0.933
#>  9     103       0.5    entertainment       0.929
#> 10     103       1      entertainment       0.935
#> # ℹ 14 more rows

#Filter example DD data by outcome type
examp_DD %>%
  filter(outcome=="alcohol")
#> # A tibble: 90 × 4
#>    subject delay_months outcome prop_indiff
#>      <dbl>        <dbl> <chr>         <dbl>
#>  1     103       0.0333 alcohol       0.878
#>  2     103       0.25   alcohol       0.749
#>  3     103       0.5    alcohol       0.747
#>  4     103       1      alcohol       0.741
#>  5     103       6      alcohol       0.249
#>  6     103      60      alcohol       0.241
#>  7     108       0.0333 alcohol       0.298
#>  8     108       0.25   alcohol       0.298
#>  9     108       0.5    alcohol       0.298
#> 10     108       1      alcohol       0.298
#> # ℹ 80 more rows
…
The grouping function can handle more than one variable at a time by
using the combine function c() on the left hand side of the
grouping = in the AUC function. The columns
that should be used to identify the independent the sets of indifference
points should be entered as
c("variable1", "variable2", "variable3", etc.). In the
following example, AUC is calculated for each outcome by subject.

#AUC by outcome and subject
AUC(dat = examp_DD,
    indiff = "prop_indiff",
    x_axis = "delay_months",
    amount = 1,
    grouping = c("outcome", "subject"))
#> # A tibble: 60 × 3
#> # Groups:   outcome [4]
#>    outcome   subject      AUC
#>    <chr>       <dbl>    <dbl>
#>  1 $100 Gain   -988. 0.359   
#>  2 $100 Gain     -2  0.000278
#>  3 $100 Gain     -1  1       
#>  4 $100 Gain    103  0.789   
#>  5 $100 Gain    108  0.768   
#>  6 $100 Gain    119  0.669   
#>  7 $100 Gain    122  0.462   
#>  8 $100 Gain    142  0.0642  
#>  9 $100 Gain    169  0.0673  
#> 10 $100 Gain    175  0.465   
#> # ℹ 50 more rows

The order of the grouping variable does not change the
resulting AUC data, only the order in which the columns are
returned.

#AUC by outcome and subject
AUC(dat = examp_DD,
    indiff = "prop_indiff",
    x_axis = "delay_months",
    amount = 1,
    grouping = c("outcome", "subject"))
#> # A tibble: 60 × 3
#> # Groups:   outcome [4]
#>    outcome   subject      AUC
#>    <chr>       <dbl>    <dbl>
#>  1 $100 Gain   -988. 0.359   
#>  2 $100 Gain     -2  0.000278
#>  3 $100 Gain     -1  1       
#>  4 $100 Gain    103  0.789   
#>  5 $100 Gain    108  0.768   
#>  6 $100 Gain    119  0.669   
#>  7 $100 Gain    122  0.462   
#>  8 $100 Gain    142  0.0642  
#>  9 $100 Gain    169  0.0673  
#> 10 $100 Gain    175  0.465   
#> # ℹ 50 more rows

#AUC by subject and outcome
AUC(dat = examp_DD,
    indiff = "prop_indiff",
    x_axis = "delay_months",
    amount = 1,
    grouping = c("subject", "outcome"))
#> # A tibble: 60 × 3
#> # Groups:   subject [15]
#>    subject outcome            AUC
#>      <dbl> <chr>            <dbl>
#>  1   -988. $100 Gain     0.359   
#>  2   -988. alcohol       0.0953  
#>  3   -988. entertainment 0.405   
#>  4   -988. food          0.158   
#>  5     -2  $100 Gain     0.000278
#>  6     -2  alcohol       0.000278
#>  7     -2  entertainment 0.000278
#>  8     -2  food          0.000278
#>  9     -1  $100 Gain     1       
#> 10     -1  alcohol       1       
#> # ℹ 50 more rows
…
The AUC_zeros function will add zeros to a tidy set of
indifference points. The function will only add the indifference points
at X = 0 if they did not already exist in the data. Additionally, a new
column will be added to the data file that will indicate which
indifference points were originally included and which indifference
points were added by the function.

#Examp_DD data did not include indifference points when delay = 0
AUC_zeros(dat = examp_DD,
          indiff = "prop_indiff",
          x_axis = "delay_months",
          amount = 1,
          groupings = c("subject","outcome"))
#> # A tibble: 420 × 5
#>    subject outcome       delay_months prop_indiff orig 
#>      <dbl> <chr>                <dbl>       <dbl> <lgl>
#>  1     103 alcohol             0            1     FALSE
#>  2     103 alcohol             0.0333       0.878 TRUE 
#>  3     103 alcohol             0.25         0.749 TRUE 
#>  4     103 alcohol             0.5          0.747 TRUE 
#>  5     103 alcohol             1            0.741 TRUE 
#>  6     103 alcohol             6            0.249 TRUE 
#>  7     103 alcohol            60            0.241 TRUE 
#>  8     103 entertainment       0            1     FALSE
#>  9     103 entertainment       0.0333       0.987 TRUE 
#> 10     103 entertainment       0.25         0.933 TRUE 
#> # ℹ 410 more rows
…
#Examp_PD data did not include indifference points when prob = 1
AUC_zeros(dat = examp_PD,
          indiff = "prop_indiff",
          x_axis = "prob",
          amount = 1,
          groupings = c("subject","outcome"),
          prob_disc = TRUE
          )
#> # A tibble: 420 × 5
#>    subject outcome        prob prop_indiff orig 
#>      <dbl> <chr>         <dbl>       <dbl> <lgl>
#>  1     103 alcohol        1          1     FALSE
#>  2     103 alcohol        0.95       0.878 TRUE 
#>  3     103 alcohol        0.9        0.749 TRUE 
#>  4     103 alcohol        0.7        0.747 TRUE 
#>  5     103 alcohol        0.5        0.741 TRUE 
#>  6     103 alcohol        0.3        0.249 TRUE 
#>  7     103 alcohol        0.05       0.241 TRUE 
#>  8     103 entertainment  1          1     FALSE
#>  9     103 entertainment  0.95       0.987 TRUE 
#> 10     103 entertainment  0.9        0.933 TRUE 
#> # ℹ 410 more rows
…
\[
\frac{1-p}{p}
\]

where p is the probability of receiving the outcome.

#Make sure to indicate groupings, if necessary
prep_odds_against(dat = examp_PD,
                  x_axis = "prob",
                  groupings = c("subject","outcome"))
#> # A tibble: 360 × 5
#> # Groups:   subject, outcome [60]
#>    subject  prob outcome   prop_indiff prob_against
#>      <dbl> <dbl> <chr>           <dbl>        <dbl>
#>  1   -988.  0.95 $100 Gain       0.957       0.0526
#>  2   -988.  0.9  $100 Gain       0.862       0.111 
#>  3   -988.  0.7  $100 Gain       0.771       0.429 
#>  4   -988.  0.5  $100 Gain       0.750       1     
#>  5   -988.  0.3  $100 Gain       0.456       2.33  
#>  6   -988.  0.05 $100 Gain       0.200      19     
#>  7   -988.  0.95 alcohol         0.569       0.0526
#>  8   -988.  0.9  alcohol         0.273       0.111 
#>  9   -988.  0.7  alcohol         0.329       0.429 
#> 10   -988.  0.5  alcohol         0.189       1     
#> # ℹ 350 more rows
…
prep_ordinal()

The prep_ordinal() function behaves very similarly to
prep_odds_against(). prep_ordinal() transforms
the x_axis values into the ordinal position. Note that if
there are indifference points for when the x_axis = 0, the ordinal value
will be calculated as 0.

#Groupings must be specified, if necessary
prep_ordinal(dat = examp_DD,
             x_axis = "delay_months",
             groupings = c("subject","outcome"))
#> # A tibble: 360 × 5
#> # Groups:   subject, outcome [60]
#>    subject delay_months outcome   prop_indiff delay_months_ord
#>      <dbl>        <dbl> <chr>           <dbl>            <int>
#>  1   -988.       0.0333 $100 Gain       0.957                1
#>  2   -988.       0.25   $100 Gain       0.862                2
#>  3   -988.       0.5    $100 Gain       0.771                3
#>  4   -988.       1      $100 Gain       0.750                4
#>  5   -988.       6      $100 Gain       0.456                5
#>  6   -988.      60      $100 Gain       0.200                6
#>  7   -988.       0.0333 alcohol         0.569                1
#>  8   -988.       0.25   alcohol         0.273                2
#>  9   -988.       0.5    alcohol         0.329                3
#> 10   -988.       1      alcohol         0.189                4
#> # ℹ 350 more rows
…
If ordinal values are desired for probability discounting data, then
the prob_disc = TRUE flag must be set. For probability
discounting, the ordinal values will be calculated in reverse order to
match taking ordinal values of the odds against receiving the outcome.
In other words, for delay discounting ordinal position of a delay
increases as delay increases but for
probability typically we want ordinal value increasing
as the probability decreases.

prep_ordinal(dat = examp_PD,
             x_axis = "prob",
             groupings = c("subject","outcome"),
             prob_disc = TRUE)
#> # A tibble: 360 × 5
#> # Groups:   subject, outcome [60]
#>    subject  prob outcome   prop_indiff prob_ord
#>      <dbl> <dbl> <chr>           <dbl>    <int>
#>  1   -988.  0.95 $100 Gain       0.957        1
#>  2   -988.  0.9  $100 Gain       0.862        2
#>  3   -988.  0.7  $100 Gain       0.771        3
#>  4   -988.  0.5  $100 Gain       0.750        4
#>  5   -988.  0.3  $100 Gain       0.456        5
#>  6   -988.  0.05 $100 Gain       0.200        6
#>  7   -988.  0.95 alcohol         0.569        1
#>  8   -988.  0.9  alcohol         0.273        2
#>  9   -988.  0.7  alcohol         0.329        3
#> 10   -988.  0.5  alcohol         0.189        4
#> # ℹ 350 more rows
…
Adding a correction factor

A common recommendation is to add a constant value (e.g., 1) to all
values in the data set and transform the “corrected” values. One
limitation of just using correction factor can change the relative
distances between the log transformed x_axis values (those
relative distances being the whole point of the log transformation in
the first place).

prep_log_AUC(dat = examp_DD,
             x_axis = "delay_months",
             type = "corr")
#> # A tibble: 360 × 5
#>    subject delay_months outcome       prop_indiff log_delay_months
#>      <dbl>        <dbl> <chr>               <dbl>            <dbl>
#>  1     103       0.0333 alcohol             0.878           0.0473
#>  2     103       0.25   alcohol             0.749           0.322 
#>  3     103       0.5    alcohol             0.747           0.585 
#>  4     103       1      alcohol             0.741           1     
#>  5     103       6      alcohol             0.249           2.81  
#>  6     103      60      alcohol             0.241           5.93  
#>  7     103       0.0333 entertainment       0.987           0.0473
#>  8     103       0.25   entertainment       0.933           0.322 
#>  9     103       0.5    entertainment       0.929           0.585 
#> 10     103       1      entertainment       0.935           1     
#> # ℹ 350 more rows

The correction factor can be specified by setting
correction to the desired value.

prep_log_AUC(dat = examp_DD,
             x_axis = "delay_months",
             type = "corr",
             correction = .25)
#> # A tibble: 360 × 5
#>    subject delay_months outcome       prop_indiff log_delay_months
#>      <dbl>        <dbl> <chr>               <dbl>            <dbl>
#>  1     103       0.0333 alcohol             0.878           -1.82 
#>  2     103       0.25   alcohol             0.749           -1    
#>  3     103       0.5    alcohol             0.747           -0.415
#>  4     103       1      alcohol             0.741            0.322
#>  5     103       6      alcohol             0.249            2.64 
#>  6     103      60      alcohol             0.241            5.91 
#>  7     103       0.0333 entertainment       0.987           -1.82 
#>  8     103       0.25   entertainment       0.933           -1    
#>  9     103       0.5    entertainment       0.929           -0.415
#> 10     103       1      entertainment       0.935            0.322
#> # ℹ 350 more rows
…
\[
X_{logtrans} = \log(X_{old}) + \kappa + \log(\min(X))
\]

This adjustment procedure is the default method the AUC function uses
is an “adjustment” to all of the log transformed values.

The following code block gives an example of the
"adjust" method for log AUC.

#Default adjust method
prep_log_AUC(dat = examp_DD,
             x_axis = "delay_months",
             type = "adjust")
#> # A tibble: 360 × 5
#>    subject delay_months outcome       prop_indiff log_delay_months
#>      <dbl>        <dbl> <chr>               <dbl>            <dbl>
#>  1     103       0.0333 alcohol             0.878             0   
#>  2     103       0.25   alcohol             0.749             2.91
#>  3     103       0.5    alcohol             0.747             3.91
#>  4     103       1      alcohol             0.741             4.91
#>  5     103       6      alcohol             0.249             7.49
#>  6     103      60      alcohol             0.241            10.8 
#>  7     103       0.0333 entertainment       0.987             0   
#>  8     103       0.25   entertainment       0.933             2.91
#>  9     103       0.5    entertainment       0.929             3.91
#> 10     103       1      entertainment       0.935             4.91
#> # ℹ 350 more rows

If the adjust method is still desired with out the decimal
correction, set dec_offset = FALSE.

#Log adjust method with no decimal correction
prep_log_AUC(dat = examp_DD,
             x_axis = "delay_months",
             type = "adjust",
             dec_offset = FALSE)
#> # A tibble: 360 × 5
#>    subject delay_months outcome       prop_indiff log_delay_months
#>      <dbl>        <dbl> <chr>               <dbl>            <dbl>
#>  1     103       0.0333 alcohol             0.878            -4.91
#>  2     103       0.25   alcohol             0.749            -2   
#>  3     103       0.5    alcohol             0.747            -1   
#>  4     103       1      alcohol             0.741             0   
#>  5     103       6      alcohol             0.249             2.58
#>  6     103      60      alcohol             0.241             5.91
#>  7     103       0.0333 entertainment       0.987            -4.91
#>  8     103       0.25   entertainment       0.933            -2   
#>  9     103       0.5    entertainment       0.929            -1   
#> 10     103       1      entertainment       0.935             0   
#> # ℹ 350 more rows
…
\[
\mathrm{IHS}(X) = \sinh^{-1}{ X} = \mathrm{arsinh } (X)
\]

and the specific calculations for a single value are

\[
\mathrm{IHS}(X) = \ln{(X + \sqrt{X^2 + 1})}
\]

#IHS transformation
prep_log_AUC(dat = examp_DD,
             x_axis = "delay_months",
             type = "IHS")
#> # A tibble: 360 × 5
#>    subject delay_months outcome       prop_indiff log_delay_months
#>      <dbl>        <dbl> <chr>               <dbl>            <dbl>
#>  1     103       0.0333 alcohol             0.878           0.0333
#>  2     103       0.25   alcohol             0.749           0.247 
#>  3     103       0.5    alcohol             0.747           0.481 
#>  4     103       1      alcohol             0.741           0.881 
#>  5     103       6      alcohol             0.249           2.49  
#>  6     103      60      alcohol             0.241           4.79  
#>  7     103       0.0333 entertainment       0.987           0.0333
#>  8     103       0.25   entertainment       0.933           0.247 
#>  9     103       0.5    entertainment       0.929           0.481 
#> 10     103       1      entertainment       0.935           0.881 
#> # ℹ 350 more rows
…
The main factor to account for when feeding the results from one
function to the next function is that the x_axis value of
interest changes after transformations have been transformed. Following
the above example, we transform probability values into odds against
values. For the log transformation, we want to treat the odds against
values as the x_axis of interest.

#Calculate odds against
examp_PD_odds = prep_odds_against(dat = examp_PD,
                  x_axis = "prob",
                  groupings = c("subject","outcome"))

#Print odds against
examp_PD_odds
#> # A tibble: 360 × 5
#> # Groups:   subject, outcome [60]
#>    subject  prob outcome   prop_indiff prob_against
#>      <dbl> <dbl> <chr>           <dbl>        <dbl>
#>  1   -988.  0.95 $100 Gain       0.957       0.0526
#>  2   -988.  0.9  $100 Gain       0.862       0.111 
#>  3   -988.  0.7  $100 Gain       0.771       0.429 
#>  4   -988.  0.5  $100 Gain       0.750       1     
#>  5   -988.  0.3  $100 Gain       0.456       2.33  
#>  6   -988.  0.05 $100 Gain       0.200      19     
#>  7   -988.  0.95 alcohol         0.569       0.0526
#>  8   -988.  0.9  alcohol         0.273       0.111 
#>  9   -988.  0.7  alcohol         0.329       0.429 
#> 10   -988.  0.5  alcohol         0.189       1     
#> # ℹ 350 more rows
…
